<?xml version="1.0" encoding="utf-8"?>
<!-- Generator: Adobe Illustrator 17.1.0, SVG Export Plug-In . SVG Version: 6.00 Build 0)  -->
<!DOCTYPE svg PUBLIC "-//W3C//DTD SVG 1.1//EN" "http://www.w3.org/Graphics/SVG/1.1/DTD/svg11.dtd">
<svg version="1.1" id="Слой_1" xmlns="http://www.w3.org/2000/svg" xmlns:xlink="http://www.w3.org/1999/xlink" x="0px" y="0px"
	 viewBox="0 0 120 120" width="120" height="120" enable-background="new 0 0 120 120" xml:space="preserve">
<g>
	<path fill="#FFFFFF" d="M40.2,65c-2.3-1.1-5.1-0.2-6.3,2.1c-1.1,2.3-0.2,5.1,2.1,6.3c2.3,1.1,5.1,0.2,6.3-2.1C43.5,68.9,42.5,66.1,40.2,65z
		 M37.5,70.5c-0.8-0.4-1.1-1.3-0.7-2.1s1.3-1.1,2.1-0.7c0.8,0.4,1.1,1.3,0.7,2.1C39.2,70.6,38.2,70.9,37.5,70.5z"/>
	<path fill="#FFFFFF" d="M92.3,63.7c-2.5-4.2-6.9-5.4-7.7-5.6l-5.9-2c1.3-3.7,4.2-13.3,1.7-18.7c-0.9-1.9-2.3-3.1-4.2-3.8c-3.1-1-5.5,0.8-6.4,2.1
		c-0.1,0.1-0.2,0.3-0.2,0.5c0,0.1-0.3,0.9-3.4,10.2c-0.8,2.5-2.1,4.1-3.8,4.8c-3,1.2-6.5-0.7-6.5-0.7c0,0,0,0-0.1,0
		c-0.7-0.4-1.7-0.1-2.1,0.6c-0.4,0.8-0.1,1.7,0.6,2.1c0.2,0.1,4.8,2.6,9.2,0.9c2.6-1,4.5-3.3,5.7-6.7c1.1-3.3,2.9-8.5,3.3-9.9
		c0.4-0.4,1.4-1.3,2.8-0.8c1.1,0.3,1.8,1,2.3,2.1c2.1,4.6-1,14.4-2.3,17.8c-0.2,0.4-0.2,0.8,0,1.2c0.2,0.4,0.5,0.7,0.9,0.8l7.5,2.5
		c0.1,0,0.1,0,0.2,0c0,0,3.8,0.9,5.7,4.2c1.4,2.5,1.5,5.7,0.3,9.6c-3.6,11.5-14.7,12.4-16.4,12.5c-1.5-0.4-11.3-2.9-27.2-10.6
		c-0.1-0.1-0.3-0.1-0.4-0.1c1.6-4.3,7.1-21.1,7.4-22c0.5-1.9,0.5-5.5-2.5-6.5c-0.5-0.2-1.4-0.3-3-0.7c-2.6-0.6-6.6-1.4-9.4-2.4
		c-1.3-0.4-2.6-0.9-3.7-1.5c-1.6-0.8-2.4-1.4-2.4-1.4c-0.4-0.3-0.9-0.4-1.4-0.3c-0.5,0.1-0.9,0.5-1,1l-10,29.7
		c-0.1,0.4-0.1,0.8,0.1,1.2c0.2,0.3,0.4,0.5,0.7,0.7c0.1,0,0.1,0.1,0.2,0.1l3.7,1.2c0.8,0.3,1.9,0.8,3.1,1.5
		c0.6,0.3,1.2,0.6,1.7,0.9c0.9,0.5,1.7,0.8,2.5,1.1c3.8,1.3,7.5,1.6,8.2,1.7c1.1,0.2,3,0,4.4-1.7c0.1,0.1,0.3,0.2,0.4,0.3
		c0,0,0,0,0,0C62.5,88.1,72.6,90.4,73,90.5c0.1,0,0.2,0,0.4,0c0.2,0,15-0.4,19.5-14.7C94.4,71,94.2,66.9,92.3,63.7z M40.6,78
		c-0.1,0-0.2,0-0.3,0c0,0-3.8-0.3-7.6-1.5c-0.6-0.2-1.3-0.5-2.1-0.9c-0.6-0.3-1.1-0.6-1.7-0.9c-1.3-0.7-2.6-1.4-3.6-1.7l-2.2-0.7
		L32.1,46c0.3,0.2,0.7,0.4,1.1,0.6c1.3,0.6,2.6,1.2,4.1,1.7c3,1,7.1,1.9,9.8,2.4c1.2,0.3,2.4,0.5,2.8,0.7c0.6,0.3,0.5,1.9,0.4,2.6
		c-0.1,0.2-6.2,18.8-7.5,22.2C42,78.1,40.9,78,40.6,78z"/>
</g>
</svg>
